/home/silvie/anaconda3/envs/saoovqe-env/bin/python /home/silvie/sa-oo-vqe-qiskit/example/formaldimine.py
switched axes, new geom: [[ 0.          0.          0.        ]
 [ 0.          0.          1.498047  ]
 [ 0.         -0.93876599  2.00477598]
 [ 0.          0.93876599  2.00477598]
 [-0.69799147  0.         -0.69799147]]
/home/silvie/anaconda3/envs/saoovqe-env/lib//python3.10/site-packages/qiskit_nature/deprecation.py:297: PauliSumOpDeprecationWarning: PauliSumOp is deprecated as of version 0.6.0 and support for them will be removed no sooner than 3 months after the release. Instead, use SparsePauliOp. You can switch to SparsePauliOp immediately, by setting `qiskit_nature.settings.use_pauli_sum_op` to `False`.
  return func(*args, **kwargs)
2023-07-19 12:06:48,049 - SAOOVQE.logger - INFO - SecondQuantizedProblem was created.
2023-07-19 12:06:48,051 - SAOOVQE.logger - INFO - Circuits representing an orthogonal basis were created.
ic| circuit._excitation_list: [((0,), (1,)),
                               ((0,), (2,)),
                               ((1,), (2,)),
                               ((3,), (4,)),
                               ((3,), (5,)),
                               ((4,), (5,)),
                               ((0, 3), (1, 4)),
                               ((0, 3), (1, 5)),
                               ((0, 4), (1, 5)),
                               ((0, 3), (2, 4)),
                               ((0, 3), (2, 5)),
                               ((0, 4), (2, 5)),
                               ((1, 3), (2, 4)),
                               ((1, 3), (2, 5)),
                               ((1, 4), (2, 5))]
2023-07-19 12:06:48,936 - SAOOVQE.logger - INFO - Ansatz was created.
2023-07-19 12:06:48,937 - SAOOVQE.logger - INFO - SAOOVQE was created.
ic| problem.frozen_orbitals_indices: [0, 1, 2, 3, 4, 5]
ic| problem.active_orbitals_indices: [6, 7, 8]
ic| problem.virtual_orbitals_indices: [9, 10, 11, 12]
2023-07-19 12:06:48,962 - SAOOVQE.logger - INFO - Computing energies...
2023-07-19 12:07:58,499 - SAOOVQE.logger - INFO - SA-optimized ansatz parameters: [-7.56256967e-06  3.78887940e-02 -9.40682357e-06 -6.37290880e-06
  3.78854187e-02  1.94752726e-06 -9.98498777e-06  4.05999332e-06
 -1.36474930e-01  1.02178705e-07 -9.63992324e-02 -1.51847990e-06
 -1.36472387e-01 -2.70270652e-07 -7.29520679e-03]
2023-07-19 12:07:58,500 - SAOOVQE.logger - INFO - Starting Orbital-Optimization process...
2023-07-19 12:09:54,805 - SAOOVQE.logger - INFO - SA-optimized ansatz parameters: [-2.47598171e-06  6.15814040e-02 -5.25196545e-06  5.77173146e-07
  6.15878864e-02 -2.93922790e-06 -8.28203623e-06  1.16505939e-05
 -1.39801993e-01 -1.09715654e-05 -1.04267786e-01 -2.30708084e-06
 -1.39804204e-01 -1.60667906e-06 -7.27499709e-03]
2023-07-19 12:09:54,805 - SAOOVQE.logger - INFO - Starting Orbital-Optimization process...
2023-07-19 12:11:32,151 - SAOOVQE.logger - INFO - SA-optimized ansatz parameters: [ 1.11847207e-06  6.49589055e-02 -3.82086977e-06  3.50271418e-06
  6.49573714e-02  6.52775415e-06 -1.85836481e-06  5.15770549e-07
 -1.40022239e-01  2.06084972e-06 -1.04495660e-01 -1.29288683e-06
 -1.40021848e-01  7.10347680e-08 -7.43823811e-03]
2023-07-19 12:11:32,151 - SAOOVQE.logger - INFO - Starting Orbital-Optimization process...
2023-07-19 12:13:05,728 - SAOOVQE.logger - INFO - SA-optimized ansatz parameters: [-2.54710340e-06  6.54883640e-02 -7.61351655e-06 -1.79351368e-06
  6.54882605e-02  3.67612713e-06  6.72348233e-06  3.14097167e-06
 -1.40053151e-01 -8.54895082e-07 -1.04506055e-01 -3.78099047e-06
 -1.40053284e-01 -2.11894773e-06 -7.45058581e-03]
2023-07-19 12:13:05,728 - SAOOVQE.logger - INFO - Starting Orbital-Optimization process...
2023-07-19 12:14:39,938 - SAOOVQE.logger - INFO - SA-optimized ansatz parameters: [ 1.49111721e-06  6.55566674e-02 -3.77555336e-06 -1.36949441e-06
  6.55546179e-02 -5.30137695e-06  1.45377394e-05 -9.41300433e-07
 -1.40046021e-01 -4.89702412e-06 -1.04509773e-01  6.91790589e-06
 -1.40046102e-01  6.33414368e-06 -7.45728226e-03]
2023-07-19 12:14:39,938 - SAOOVQE.logger - INFO - Starting Orbital-Optimization process...
2023-07-19 12:15:04,502 - SAOOVQE.logger - INFO - Optimal phi angle for state-resolution was obtained (phi* = 3.141566169422925).
2023-07-19 12:15:21,597 - SAOOVQE.logger - INFO - Constructing gradient evaluators...

============== SA-OO-VQE Results ==============
Optimized ansatz parameters: [ 1.49111721e-06  6.55566674e-02 -3.77555336e-06 -1.36949441e-06
  6.55546179e-02 -5.30137695e-06  1.45377394e-05 -9.41300433e-07
 -1.40046021e-01 -4.89702412e-06 -1.04509773e-01  6.91790589e-06
 -1.40046102e-01  6.33414368e-06 -7.45728226e-03]
Optimized (state-resolution) angle: 3.141566169422925
Energies: [-92.74391091 -92.73575746]

============== Gradients ==============
0 0 [-3.42971590e-02 -1.67393166e-05 -3.72442740e-01]
0 1 [3.55900182e-02 1.93654792e-05 3.62726637e-01]
0 2 [-0.0183902   0.02822883 -0.02626215]
0 3 [-0.0182383  -0.02822442 -0.02624853]
0 4 [ 3.53356390e-02 -7.03601739e-06  6.22267784e-02]
1 0 [-2.21461782e-01  1.56590296e-05 -1.17323689e-01]
1 1 [ 6.28229477e-02 -1.92315206e-05  1.24991014e-01]
1 2 [ 0.00094152  0.02195244 -0.01335019]
1 3 [ 0.00078794 -0.02195688 -0.01336383]
1 4 [1.56909374e-01 8.01060801e-06 1.90466957e-02]

============== Total non-adiabatic couplings ==============
0 [-2.33662359e-03  1.44740070e+01  1.78907502e-03]
1 [ 1.39648162e-03 -5.93103111e+00 -3.54357007e-04]
2 [-3.83625636  0.21900384  1.03467806]
3 [ 3.83644779  0.21875793 -1.03516292]
4 [ 7.50688544e-04 -9.14947385e+00 -9.59110717e-04]

============== CI non-adiabatic couplings ==============
0 [-2.33714728e-03  1.47386725e+01  1.79346018e-03]
1 [ 1.39494638e-03 -5.96562619e+00 -3.49801975e-04]
2 [-3.81787767  0.2179108   1.03173668]
3 [ 3.81806966  0.2176649  -1.03222156]
4 [ 7.50210588e-04 -9.20862204e+00 -9.58776240e-04]

============== CSF non-adiabatic couplings ==============
0 [ 5.23695601e-07 -2.64665564e-01 -4.38515835e-06]
1 [ 1.53524147e-06  3.45950794e-02 -4.55503258e-06]
2 [-0.01837869  0.00109304  0.00294138]
3 [ 0.01837813  0.00109303 -0.00294136]
4 [ 4.77955436e-07  5.91481882e-02 -3.34477385e-07]

Process finished with exit code 0
