   This run of MOLCAS is using the pymolcas driver

                             OPE
                             OPE          NMOL  CASOP  ENMOLC A   SO
                 OPE        NMOLC        AS  OP EN  MO LC     AS  OP
                OPENM       OL CA        SO  PE NM  OL CA     SOP EN
                OP EN      MO   LC       AS  OP ENMOL  CASO   PENMOL
                OP  EN     MO   LC       AS  OP EN     MO     LC ASO
               OP   E  NMOL  C  AS       OP  EN MO     LC     AS  OP
               OP  E   NMO   LC AS        OPEN  MO     LCASOP EN   M
               O  PEN   MO  LCA  SO
            OPE   NMO   L   CAS    OP
        OPENMOL  CASOP     ENMOL   CASOPE
     OPENMOLCA   SOPENMOLCASOPEN   MOLCASOPE
    OPENMOLCAS   OP           EN   MOL    CAS
    OPENMOLCAS       OP  ENM        O     LCA
    OPENMOLCAS    OPEN  MOLCASO     P  E  NMO
    OPENMOLCAS     OP               E  N  MOL
    OPENMOLCA   SO           PENM   O  L  CAS    OPEN    MO    LCAS
    OPENMOLCA   SOP           ENM   O  L  CAS   OP  EN  MOLC  AS   O
    OPENMOLCA   SOPE           NM      O  LCA   S      OP  EN MO
    OPENMOLC                AS         O  PEN   M      OL  CA  SOPE
    OPENMO        LCASOPE  NMOL        C  ASO   P      ENMOLC     AS
    OPE     NMO      LCA  SO     P     E   NM   OL  CA SO  PE N   MO
          OPENMOLCA            SOPE   NMO        LCAS  O    P  ENMO
     OPENMOLCASOPENMOLCASOPENMOLCASOPENMOLCA
        OPENMOLCASOPENMOLCASOPENMOLCASOPE
            OPENMOLCASOPENMOLCASOPENM
               OPENMOLCASOPENMOLCA        version: 23.06
                   OPENMOLCASO
                       OPE                tag: 105-gffc277a3d

 OpenMolcas is free software; you can redistribute it and/or modify it
 under the terms of the GNU Lesser General Public License version 2.1.
 OpenMolcas is distributed in the hope that it will be useful, but it
 is provided "as is" and without any express or implied warranties.
 For more details see the full text of the license in the file
 LICENSE or in <http://www.gnu.org/licenses/>.

                 Copyright (C) The OpenMolcas Authors
           For the author list and the recommended citation,
                   consult the file CONTRIBUTORS.md

           *************************************************
           * pymolcas version py2.25                       *
           *   build 2b27fa14244bdc32cb1957e6230cd793      *
           *   (after the EMIL interpreter by V. Veryazov) *
           *************************************************

configuration info
------------------
Host name: frodon.lsd.univ-montp2.fr (Linux)
C Compiler ID: GNU
C flags: -std=gnu99
Fortran Compiler ID: GNU
Fortran flags: -fno-aggressive-loop-optimizations -cpp -fdefault-integer-8 -fmax-stack-var-size=1048576
Definitions: _MOLCAS_;_I8_;_LINUX_
Parallel: OFF (GA=OFF)


   ----------------------------------------------------------------------------------
  |
  |           Project: formaldimine_4_3_sto3g_90_120
  |    Submitted from: /home/mbeseda/OpenMolcas/build/my_computations/formaldimine_90
  |      Scratch area: /tmp/formaldimine_4_3_sto3g_90_120
  |   Save outputs to: /home/mbeseda/OpenMolcas/build/my_computations/formaldimine_90
  |            Molcas: /home/mbeseda/OpenMolcas/build
  |
  | Scratch area is empty
  |
  |    MOLCAS_DRIVER = /home/mbeseda/OpenMolcas/build/pymolcas
  |    MOLCAS_NPROCS = 1
  |    MOLCAS_SOURCE = /home/mbeseda/OpenMolcas
  | MOLCAS_STRUCTURE = 0
  |
   ----------------------------------------------------------------------------------

++ ---------   Input file   ---------

&GATEWAY
  coord=formaldimine_90_120.xyz
  basis=sto-3g
  group=Nosym
  NOMOVE

&SEWARD

&SCF

&RASSCF
  SPIN = 1
  LEVShft = 0
  NACTel = 4
  INACtive = 6
  RAS2 = 3
  CIROot = 2 2 1
  ITERations = 500, 200
  THRS = 1e-07, .35e-02, 1.9e-03
  EXPERT

&ALASKA
  ROOT = 1
  PNEW
  SHOW
  VERBose

&ALASKA
  ROOT = 2
  PNEW
  SHOW
  VERBose

&ALASKA
  NAC = 1 2
  SHOW
  VERBose

-- ----------------------------------

--- Start Module: gateway at Tue Jul 18 01:03:26 2023 ---

()()()()()()()()()()()()()()()()()()()()()()()()()()()()()()()()()()()()()()()()()()()()()()()()()()

                                              &GATEWAY

                                   only a single process is used
                       available to each process: 2.0 GB of memory, 1 thread?
                                             pid: 42460
()()()()()()()()()()()()()()()()()()()()()()()()()()()()()()()()()()()()()()()()()()()()()()()()()()


++    Symmetry information:
      ---------------------

                    Character Table for C1 

                             E  
                    a        1  x, y, xy, Rz, z, xz, Ry, yz, Rx, I
--


++    Basis set information:
      ----------------------


      Basis set label: N.STO-3G.........

      Electronic valence basis set:
      ------------------
      Associated Effective Charge   7.000000 au
      Associated Actual Charge      7.000000 au
      Nuclear Model: Point charge

      Shell  nPrim  nBasis  Cartesian Spherical Contaminant
         s       6       2        X                  
         p       3       1        X                  


      Basis set label: C.STO-3G.........

      Electronic valence basis set:
      ------------------
      Associated Effective Charge   6.000000 au
      Associated Actual Charge      6.000000 au
      Nuclear Model: Point charge

      Shell  nPrim  nBasis  Cartesian Spherical Contaminant
         s       6       2        X                  
         p       3       1        X                  


      Basis set label: H.STO-3G.........

      Electronic valence basis set:
      ------------------
      Associated Effective Charge   1.000000 au
      Associated Actual Charge      1.000000 au
      Nuclear Model: Point charge

      Shell  nPrim  nBasis  Cartesian Spherical Contaminant
         s       3       1        X                  
--


++    Molecular structure info:
      -------------------------

                    ************************************************ 
                    **** Cartesian Coordinates / Bohr, Angstrom **** 
                    ************************************************ 

     Center  Label                x              y              z                     x              y              z
        1      N1               0.000000       0.000000       0.000000              0.000000       0.000000       0.000000
        2      C2               0.000000       0.000000       2.830899              0.000000       0.000000       1.498047
        3      H3               0.000000      -1.774011       3.788478              0.000000      -0.938766       2.004776
        4      H4               0.000000       1.774011       3.788478              0.000000       0.938766       2.004776
        5      H5              -1.615454       0.000000      -0.932683             -0.854861       0.000000      -0.493554

                    *************************************** 
                    *    InterNuclear Distances / Bohr    * 
                    *************************************** 

               1 N1            2 C2            3 H3            4 H4            5 H5    
    1 N1       0.000000
    2 C2       2.830899        0.000000
    3 H3       4.183261        2.015954        0.000000
    4 H4       4.183261        2.015954        3.548021        0.000000
    5 H5       1.865366        4.095636        5.295863        5.295863        0.000000

                    ******************************************* 
                    *    InterNuclear Distances / Angstrom    * 
                    ******************************************* 

               1 N1            2 C2            3 H3            4 H4            5 H5    
    1 N1       0.000000
    2 C2       1.498047        0.000000
    3 H3       2.213687        1.066797        0.000000
    4 H4       2.213687        1.066797        1.877532        0.000000
    5 H5       0.987109        2.167317        2.802450        2.802450        0.000000

                    ************************************** 
                    *    Valence Bond Angles / Degree    * 
                    ************************************** 
                          Atom centers                 Phi
                      2 C2       1 N1       5 H5       120.00
                      1 N1       2 C2       3 H3       118.36
                      1 N1       2 C2       4 H4       118.36
                      3 H3       2 C2       4 H4       123.28

           ***************************************************************
           *              Valence Dihedral Angles / Degree               *
           ***************************************************************
                    Atom centers                       Phi1     Phi2     Theta 
           3 H3       2 C2       1 N1       5 H5        118.36   120.00    90.00
           4 H4       2 C2       1 N1       5 H5        118.36   120.00   -90.00
--


            Nuclear Potential Energy             30.01255597 au

--- Stop Module: gateway at Tue Jul 18 01:03:27 2023 /rc=_RC_ALL_IS_WELL_ ---
*** files: xmldump
    saved to directory /home/mbeseda/OpenMolcas/build/my_computations/formaldimine_90

--- Start Module: seward at Tue Jul 18 01:03:27 2023 ---

()()()()()()()()()()()()()()()()()()()()()()()()()()()()()()()()()()()()()()()()()()()()()()()()()()

                                              &SEWARD

                                   only a single process is used
                       available to each process: 2.0 GB of memory, 1 thread?
                                             pid: 42464
()()()()()()()()()()()()()()()()()()()()()()()()()()()()()()()()()()()()()()()()()()()()()()()()()()

               SEWARD will generate:
                  Multipole Moment integrals up to order  2
                  Kinetic Energy integrals
                  Nuclear Attraction integrals (point charge)
                  One-Electron Hamiltonian integrals
                  Velocity integrals
                  Orbital angular momentum around (-0.0561  0.0000  1.4010 )
                  Velocity quadrupole around (-0.0561  0.0000  1.4010 )
                  Two-Electron Repulsion integrals

                   Integrals are discarded if absolute value <: 0.10E-13
                   Integral cutoff threshold is set to       <: 0.10E-15

            Nuclear Potential Energy             30.01255597 au


      Basis set specifications :
      Symmetry species         a  
      Basis functions           13


      Input file to MOLDEN was generated!

--- Stop Module: seward at Tue Jul 18 01:03:28 2023 /rc=_RC_ALL_IS_WELL_ ---
*** files: formaldimine_4_3_sto3g_90_120.GssOrb formaldimine_4_3_sto3g_90_120.guessorb.h5 formaldimine_4_3_sto3g_90_120.guessorb.molden xmldump
    saved to directory /home/mbeseda/OpenMolcas/build/my_computations/formaldimine_90
--- Module seward spent 1 second ---

*** symbolic link created: INPORB -> formaldimine_4_3_sto3g_90_120.GssOrb
--- Start Module: scf at Tue Jul 18 01:03:28 2023 ---

()()()()()()()()()()()()()()()()()()()()()()()()()()()()()()()()()()()()()()()()()()()()()()()()()()

                                                &SCF

                                   only a single process is used
                       available to each process: 2.0 GB of memory, 1 thread?
                                             pid: 42468
()()()()()()()()()()()()()()()()()()()()()()()()()()()()()()()()()()()()()()()()()()()()()()()()()()

++    Input section:
      --------------

      Header of the integral files:
      
       Integrals generated by Gateway/Seward, Tue Jul 18 01:03:27 2023


      Cartesian coordinates in Angstrom:
      -----------------------------------------------------
      No.  Label        X            Y            Z        
      -----------------------------------------------------
       1   N1         0.00000000   0.00000000   0.00000000
       2   C2         0.00000000   0.00000000   1.49804700
       3   H3         0.00000000  -0.93876598   2.00477598
       4   H4         0.00000000   0.93876598   2.00477598
       5   H5        -0.85486147   0.00000000  -0.49355450
      -----------------------------------------------------
      Nuclear repulsion energy =   30.01255597
--

++    Orbital specifications:
      -----------------------

      Symmetry species               1
                                     a
      Frozen orbitals                0
      Occupied orbitals              8
      Secondary orbitals             5
      Deleted orbitals               0
      Total number of orbitals      13
      Number of basis functions     13
--

      Molecular charge                           0.000

++    Optimization specifications:
      ----------------------------

      SCF Algorithm: Conventional
      Minimized density differences are used
      Number of density matrices in core                5
      Maximum number of NDDO SCF iterations           400
      Maximum number of HF SCF iterations             400
      Threshold for SCF energy change            0.10E-08
      Threshold for density matrix               0.10E-03
      Threshold for Fock matrix                  0.15E-03
      Threshold for linear dependence            0.10E-08
      Threshold at which DIIS is turned on       0.15E+00
      Maximum depth in the DIIS procedure               5
      Maximum depth in the BFGS Hessian update         30
      Threshold at which QNR/C2DIIS is turned on 0.75E-01
      Threshold for Norm(delta) (QNR/C2DIIS)     0.10E-02
      All orbitals punched on: SCFORB
--

      Input vectors read from INPORB
      Orbital file label: *Guess orbitals


++ Convergence information
                                   SCF        iterations: Energy and convergence statistics

Iter     Tot. SCF        One-elec.       Two-elec.     Energy      Max Dij or  Max Fij      DNorm      TNorm      AccCon     Time
         Energy          Energy          Energy        Change      Delta Norm                                                in Sec.
   1   -92.359824616  -186.281644630    63.909264041   0.00E+00    0.90E+00*   0.22E+00*    0.53E+01   0.29E+02   None         0.
   2   -92.408362596  -185.251412250    62.830493681  -0.49E-01*   0.87E-01*   0.13E+00*    0.24E+01   0.29E+02   EDIIS        0.
   3   -92.647732607  -185.742846216    63.082557637  -0.24E+00*   0.41E-01*   0.23E-01*    0.59E+00   0.29E+02   c2DIIS       0.
   4   -92.655345853  -185.686726024    63.018824199  -0.76E-02*   0.22E-01*   0.11E-01*    0.12E+00   0.29E+02   QNRc2DIIS    0.
   5   -92.656558062  -185.685499636    63.016385602  -0.12E-02*   0.38E-01*   0.67E-02*    0.29E-01   0.29E+02   QNRc2DIIS    0.
   6   -92.657221431  -185.667784071    62.998006668  -0.66E-03*   0.52E-02*   0.36E-02*    0.19E-01   0.29E+02   QNRc2DIIS    0.
   7   -92.657286581  -185.673134943    63.003292390  -0.65E-04*   0.27E-02*   0.64E-03*    0.46E-02   0.29E+02   QNRc2DIIS    0.
   8   -92.657293477  -185.673209063    63.003359613  -0.69E-05*   0.10E-02*   0.18E-03*    0.26E-02   0.29E+02   QNRc2DIIS    0.
   9   -92.657294038  -185.672768374    63.002918363  -0.56E-06*   0.13E-03    0.55E-04     0.12E-02   0.29E+02   QNRc2DIIS    0.
  10   -92.657294068  -185.672814930    63.002964889  -0.30E-07*   0.54E-04    0.16E-04     0.27E-03   0.29E+02   QNRc2DIIS    0.
  11   -92.657294071  -185.672804556    63.002954512  -0.35E-08*   0.33E-05    0.14E-05     0.46E-04   0.29E+02   QNRc2DIIS    0.
  12   -92.657294071  -185.672806393    63.002956348  -0.21E-10    0.96E-06    0.40E-06     0.58E-05   0.29E+02   QNRc2DIIS    0.

       Convergence after  12 Macro Iterations
--

 *****************************************************************************************************************************
 *                                                                                                                           *
 *                                             SCF/KS-DFT Program, Final results                                             *
 *                                                                                                                           *
 *                                                                                                                           *
 *                                                                                                                           *
 *                                                       Final Results                                                       *
 *                                                                                                                           *
 *****************************************************************************************************************************

::    Total SCF energy                                -92.6572940714
      One-electron energy                            -185.6728063926
      Two-electron energy                              63.0029563484
      Nuclear repulsion energy                         30.0125559728
      Kinetic energy (interpolated)                    92.1569290539
      Virial theorem                                    1.0054294888
      Total spin, S(S+1)                                0.0000000000
      Total spin, S                                     0.0000000000
      Max non-diagonal density matrix element           0.0000007770
      Max non-diagonal Fock matrix element              0.0000001630


      All orbitals with orbital energies smaller than  E(LUMO)+0.5 are printed

++    Molecular orbitals:
      -------------------

      Title: SCF orbitals

      Molecular orbitals for symmetry species 1: a  

          Orbital            1         2         3         4         5         6         7         8         9        10    
          Energy          -15.2043  -11.1075   -1.0216   -0.8189   -0.6012   -0.5253   -0.3047   -0.2498    0.1706    0.6092
          Occ. No.          2.0000    2.0000    2.0000    2.0000    2.0000    2.0000    2.0000    2.0000    0.0000    0.0000

        1 N1     1s         0.9938    0.0004   -0.1880    0.1142   -0.0000    0.0217   -0.0862   -0.0000    0.0725   -0.0976
        2 N1     2s         0.0285   -0.0043    0.6307   -0.4139    0.0000   -0.1083    0.4323    0.0000   -0.4087    0.6024
        3 N1     2px       -0.0038   -0.0002   -0.0697    0.1042   -0.0000   -0.2966    0.5233    0.0000   -0.3973   -0.3294
        4 N1     2py        0.0000   -0.0000    0.0000    0.0000    0.1590   -0.0000   -0.0000    0.9799   -0.0000   -0.0000
        5 N1     2pz        0.0013   -0.0032    0.0595    0.1173   -0.0000   -0.4200   -0.2788   -0.0000    0.2447    0.5087
        6 C2     1s         0.0005    0.9927   -0.1435   -0.1694    0.0000    0.0231    0.0380   -0.0000   -0.0302    0.2109
        7 C2     2s        -0.0046    0.0327    0.4083    0.5186   -0.0000   -0.1075   -0.1635    0.0000    0.1385   -1.2760
        8 C2     2px        0.0001    0.0005   -0.0135    0.0237   -0.0000   -0.0195    0.5649    0.0000    0.8234    0.0662
        9 C2     2py       -0.0000    0.0000    0.0000    0.0000    0.5542   -0.0000    0.0000   -0.0476    0.0000    0.0000
       10 C2     2pz        0.0043    0.0010   -0.0843    0.2029    0.0000    0.4683    0.2498    0.0000   -0.1548    0.0923
       11 H3     1s         0.0000   -0.0069    0.0956    0.2428   -0.3950    0.1616    0.0520    0.1910   -0.0663    0.6784
       12 H4     1s         0.0000   -0.0069    0.0956    0.2428    0.3950    0.1616    0.0520   -0.1910   -0.0663    0.6784
       13 H5     1s        -0.0074   -0.0004    0.1701   -0.2181    0.0000    0.3977   -0.1320   -0.0000    0.3177   -0.3692

          Orbital           11    
          Energy            0.6704
          Occ. No.          0.0000

        1 N1     1s         0.1025
        2 N1     2s        -0.6675
        3 N1     2px        0.3713
        4 N1     2py       -0.0000
        5 N1     2pz       -0.3716
        6 C2     1s         0.0545
        7 C2     2s        -0.4298
        8 C2     2px       -0.0436
        9 C2     2py        0.0000
       10 C2     2pz       -0.9770
       11 H3     1s         0.6200
       12 H4     1s         0.6200
       13 H5     1s         0.4747
--


++    Molecular charges:
      ------------------

      Mulliken charges per centre and basis function type
      ---------------------------------------------------

                N1      C2      H3      H4      H5    
      1s       1.9962  1.9936  0.9136  0.9136  0.8126
      2s       1.5879  1.2501  0.0000  0.0000  0.0000
      2px      1.0166  0.7389  0.0000  0.0000  0.0000
      2pz      0.8421  0.9567  0.0000  0.0000  0.0000
      2py      1.9657  1.0124  0.0000  0.0000  0.0000
      Total    7.4085  5.9517  0.9136  0.9136  0.8126

      N-E     -0.4085  0.0483  0.0864  0.0864  0.1874

      Total electronic charge=   16.000000

      Total            charge=   -0.000000
--


++    Molecular properties:
      ---------------------

      Charge (e):
                      =   -0.0000
      Dipole Moment (Debye):
      Origin of the operator (Ang)=    0.0000    0.0000    0.0000
                   X= -7.7162E-01               Y= -7.8738E-15               Z=  1.7118E+00           Total=  1.8777E+00
      Quadrupole Moment (Debye*Ang):
      Origin of the operator (Ang)=   -0.0297    0.0000    0.7414
                  XX= -1.0920E+01              XY=  2.3756E-15              XZ=  1.3201E+00              YY= -1.2034E+01
                  YZ= -1.0238E-14              ZZ= -1.0383E+01
      In traceless form (Debye*Ang)
                  XX=  2.8852E-01              XY=  3.5633E-15              XZ=  1.9801E+00              YY= -1.3824E+00
                  YZ= -1.5357E-14              ZZ=  1.0939E+00
--


      Input file to MOLDEN was generated!

 ###############################################################################
 ###############################################################################
 ###                                                                         ###
 ###                                                                         ###
 ###    WARNING: RunFile label nBas                                          ###
 ###    was used       72 times                                              ###
 ###                                                                         ###
 ###                                                                         ###
 ###############################################################################
 ###############################################################################
--- Stop Module: scf at Tue Jul 18 01:03:29 2023 /rc=_RC_ALL_IS_WELL_ ---
*** files: formaldimine_4_3_sto3g_90_120.scf.molden formaldimine_4_3_sto3g_90_120.ScfOrb formaldimine_4_3_sto3g_90_120.scf.h5 xmldump
    saved to directory /home/mbeseda/OpenMolcas/build/my_computations/formaldimine_90

*** symbolic link created: INPORB -> formaldimine_4_3_sto3g_90_120.ScfOrb
--- Start Module: rasscf at Tue Jul 18 01:03:29 2023 ---

()()()()()()()()()()()()()()()()()()()()()()()()()()()()()()()()()()()()()()()()()()()()()()()()()()

                                              &RASSCF

                                   only a single process is used
                       available to each process: 2.0 GB of memory, 1 thread?
                                             pid: 42471
()()()()()()()()()()()()()()()()()()()()()()()()()()()()()()()()()()()()()()()()()()()()()()()()()()


 *************** WARNING ****************
 ###############################################################################
 ###############################################################################
 ###                                                                         ###
 ###                                                                         ###
 ###    WARNING: Too many macro-iterations.                                  ###
 ###                                                                         ###
 ###                                                                         ###
 ###############################################################################
 ###############################################################################
 Too many macro-iterations requested.
 Reset to maximum, new MAXIT=     200
 ****************************************

 *************** WARNING ****************
 ###############################################################################
 ###############################################################################
 ###                                                                         ###
 ###                                                                         ###
 ###    WARNING: Too many SX-iterations.                                     ###
 ###                                                                         ###
 ###                                                                         ###
 ###############################################################################
 ###############################################################################
 Too many SX-iterations requested.
 Reset to maximum, new ITMAX=     100
 ****************************************

      Header of the ONEINT file:
      --------------------------
      
      Integrals generated by Gateway/Seward, Tue Jul 18 01:03:27 2023


      OrdInt status: non-squared


      Cartesian coordinates in Angstrom:
      -----------------------------------------------------
      No.  Label        X            Y            Z        
      -----------------------------------------------------
       1   N1         0.00000000   0.00000000   0.00000000
       2   C2         0.00000000   0.00000000   1.49804700
       3   H3         0.00000000  -0.93876598   2.00477598
       4   H4         0.00000000   0.93876598   2.00477598
       5   H5        -0.85486147   0.00000000  -0.49355450
      -----------------------------------------------------
      Nuclear repulsion energy =   30.01255597

++    Wave function specifications:
      -----------------------------

      Number of closed shell electrons          12
      Number of electrons in active shells       4
      Max number of holes in RAS1 space          0
      Max nr of electrons in RAS3 space          0
      Number of inactive orbitals                6
      Number of active orbitals                  3
      Number of secondary orbitals               4
      Spin quantum number                      0.0
      State symmetry                             1
--

++    Orbital specifications:
      -----------------------

      Symmetry species                           1
                                                 a
      Frozen orbitals                            0
      Inactive orbitals                          6
      Active orbitals                            3
      RAS1 orbitals                              0
      RAS2 orbitals                              3
      RAS3 orbitals                              0
      Secondary orbitals                         4
      Deleted orbitals                           0
      Number of basis functions                 13
--

++    CI expansion specifications:
      ----------------------------

      Number of CSFs                             6
      Number of determinants                     6
      Number of root(s) required                 2
      Root chosen for geometry opt.              2
      CI roots used                              1     2
      weights                                0.500 0.500
      highest root included in the CI            2
      max. size of the explicit Hamiltonian      6
--

++    Optimization specifications:
      ----------------------------

      RASSCF algorithm: Conventional
      Maximum number of macro iterations       200
      Maximum number of SX iterations          100
      Threshold for RASSCF energy            0.100E-06
      Threshold for max MO rotation          0.350E-02
      Threshold for max BLB element          0.190E-02
      Level shift parameter                  0.000E+00
      Make Quasi-Newton update
--

      Orbitals from runfile: scf orbitals
      The MO-coefficients are taken from scf orbitals on runfile

      Total molecular charge    0.00

      ************************************************************************************************************************
      *                                                                                                                      *
      *                                            Wave function control section                                             *
      *                                                                                                                      *
      ************************************************************************************************************************


                                         RASSCF iterations: Energy and convergence statistics
                                         ----------------------------------------------------

      Iter CI   SX   CI       RASSCF       Energy    max ROT     max BLB   max BLB  Level Ln srch  Step   QN   Walltime
          iter iter root      energy       change     param      element    value   shift minimum  type update hh:mm:ss
 Nr of preliminary CI iterations:   1
        1   1   21    0   -92.72327363    0.00E+00  -0.10E+00*   3  10 1 -0.61E-01*  0.00   0.00    SX    NO    0:00:00
        2   1   10    0   -92.74490842   -0.22E-01*  0.12E-01*   7  10 1  0.19E-01*  0.00   0.00    SX    NO    0:00:00
        3   1    9    0   -92.74588653   -0.98E-03* -0.43E-02*   6  11 1 -0.90E-02*  0.00   0.00    SX    NO    0:00:00
        4   1    8    0   -92.74608643   -0.20E-03*  0.14E-02    7  11 1 -0.19E-02*  0.00   0.00    SX    NO    0:00:00
        5   1    7    0   -92.74610154   -0.15E-04*  0.11E-02    6  11 1 -0.13E-02   0.00   1.45    QN   YES    0:00:00
        6   1    7    0   -92.74610472   -0.32E-05*  0.32E-03    6  11 1  0.52E-03   0.00   0.74    QN   YES    0:00:00
        7   1    6    0   -92.74610516   -0.44E-06* -0.65E-04    6  13 1  0.21E-03   0.00   0.79    QN   YES    0:00:00
        8   1    6    0   -92.74610519   -0.32E-07  -0.98E-04    6  13 1  0.22E-04   0.00   2.50    LS   YES    0:00:00
      Convergence after  8 iterations
        9   1    6    0   -92.74610515    0.34E-07  -0.98E-04    6  13 1 -0.16E-03   0.00   2.50    LS   YES    0:00:00

      ************************************************************************************************************************
                                                      Wave function printout:
                       occupation of active orbitals, and spin coupling of open shells (u,d: Spin up or down)
      ************************************************************************************************************************

      Note: transformation to natural orbitals
      has been made, which may change the order of the CSFs.

      printout of CI-coefficients larger than  0.05 for root  1
      energy=     -92.756624
      conf/sym  111     Coeff  Weight
             2  2ud   0.94854 0.89972
             5  ud2   0.31666 0.10028

      printout of CI-coefficients larger than  0.05 for root  2
      energy=     -92.735587
      conf/sym  111     Coeff  Weight
             1  220   0.83911 0.70411
             4  u2d  -0.42470 0.18037
             6  022  -0.33901 0.11493

      Natural orbitals and occupation numbers for root  1
      sym 1:   2.000000   1.000000   1.000000

      Natural orbitals and occupation numbers for root  2
      sym 1:   1.661927   1.998806   0.339266

      ************************************************************************************************************************
      *                                                                                                                      *
      *                                                    Final results                                                     *
      *                                                                                                                      *
      ************************************************************************************************************************


++    Wave function specifications:
      -----------------------------

      Number of closed shell electrons          12
      Number of electrons in active shells       4
      Max number of holes in RAS1 space          0
      Max nr of electrons in RAS3 space          0
      Number of inactive orbitals                6
      Number of active orbitals                  3
      Number of secondary orbitals               4
      Spin quantum number                      0.0
      State symmetry                             1
--

++    Orbital specifications:
      -----------------------

      Symmetry species                           1
                                                 a
      Frozen orbitals                            0
      Inactive orbitals                          6
      Active orbitals                            3
      RAS1 orbitals                              0
      RAS2 orbitals                              3
      RAS3 orbitals                              0
      Secondary orbitals                         4
      Deleted orbitals                           0
      Number of basis functions                 13
--

++    CI expansion specifications:
      ----------------------------

      Number of CSFs                             6
      Number of determinants                     6
      Number of root(s) required                 2
      CI roots used                              1     2
      weights                                0.500 0.500
      highest root included in the CI            2
      Root passed to geometry opt.               2
--

++    Final optimization conditions:
      ------------------------------

      Average CI energy                             -92.74610515
      RASSCF energy for state  2                    -92.73558658
      Super-CI energy                                -0.00000000
      RASSCF energy change                            0.00000003
      Max change in MO coefficients              -0.128E-03
      Max non-diagonal density matrix element    -0.980E-04
      Maximum BLB matrix element                 -0.158E-03
      (orbital pair   6,  13 in symmetry   1)
      Norm of electronic gradient            0.432E-01
--


      Final state energy(ies):
      ------------------------

::    RASSCF root number  1 Total energy:    -92.75662373
::    RASSCF root number  2 Total energy:    -92.73558658

++    Molecular orbitals:
      -------------------

      Pseudonatural active orbitals and approximate occupation numbers




      Molecular orbitals for symmetry species 1: a  


      Orbital                 1         2         3         4         5         6         7         8         9
      Energy           -15.2847  -11.0424   -1.0420   -0.8071   -0.5686   -0.5366   -0.3044    0.0000   -0.0345
      Occ. No.           2.0000    2.0000    2.0000    2.0000    2.0000    2.0000    1.7448    1.4994    0.7558

     1 N1     1s         0.9938    0.0005   -0.1968    0.0864   -0.0000    0.0265   -0.1009   -0.0000    0.0508
     2 N1     2s         0.0283   -0.0047    0.6626   -0.3168    0.0000   -0.1235    0.4778    0.0000   -0.2708
     3 N1     2px       -0.0038   -0.0004   -0.1369    0.1388    0.0000   -0.2229    0.6092    0.0000   -0.3927
     4 N1     2py       -0.0000   -0.0000    0.0000   -0.0000    0.0603    0.0000   -0.0000    0.9939    0.0000
     5 N1     2pz        0.0013   -0.0033    0.0777    0.1567    0.0000   -0.4810   -0.3246   -0.0000    0.2208
     6 C2     1s         0.0005    0.9926   -0.1201   -0.1851   -0.0000    0.0062    0.0264    0.0000   -0.0118
     7 C2     2s        -0.0046    0.0333    0.3292    0.5591   -0.0000   -0.0473   -0.1064   -0.0000    0.0407
     8 C2     2px       -0.0000    0.0000   -0.0290    0.0163    0.0000    0.0075    0.4462    0.0000    0.9014
     9 C2     2py       -0.0000    0.0000    0.0000    0.0000    0.5495    0.0000    0.0000   -0.0095    0.0000
    10 C2     2pz        0.0043    0.0005   -0.1028    0.1452   -0.0000    0.4642    0.1542    0.0000   -0.0746
    11 H3     1s         0.0000   -0.0069    0.0688    0.2470   -0.4173    0.1891    0.0373    0.1366   -0.0219
    12 H4     1s         0.0000   -0.0069    0.0688    0.2470    0.4173    0.1891    0.0373   -0.1366   -0.0219
    13 H5     1s        -0.0074   -0.0004    0.2010   -0.2273   -0.0000    0.3570   -0.1640   -0.0000    0.2037
--

      Von Neumann Entropy (Root   1) =  1.00000


      Mulliken population analysis for root number:  1
      -----------------------------------------------


++    Molecular charges:
      ------------------

      Mulliken charges per centre and basis function type
      ---------------------------------------------------

                N1      C2      H3      H4      H5    
      1s       1.9967  1.9933  0.9229  0.9229  0.8424
      2s       1.6827  1.2003  0.0000  0.0000  0.0000
      2px      1.4345  1.0333  0.0000  0.0000  0.0000
      2pz      1.1130  0.8638  0.0000  0.0000  0.0000
      2py      0.9973  0.9969  0.0000  0.0000  0.0000
      Total    7.2243  6.0875  0.9229  0.9229  0.8424

      N-E     -0.2243 -0.0875  0.0771  0.0771  0.1576

      Total electronic charge=   16.000000

      Total            charge=   -0.000000
--



      Expectation values of various properties for root number:  1
      -----------------------------------------------------------


++    Molecular properties:
      ---------------------

      Charge (e):
                      =   -0.0000
      Dipole Moment (Debye):
      Origin of the operator (Ang)=    0.0000    0.0000    0.0000
                   X= -1.4241E+00               Y= -9.8904E-15               Z=  7.2830E-01           Total=  1.5996E+00
      Quadrupole Moment (Debye*Ang):
      Origin of the operator (Ang)=   -0.0297    0.0000    0.7414
                  XX= -1.1938E+01              XY=  2.1134E-15              XZ=  1.7472E+00              YY= -1.1035E+01
                  YZ= -1.0934E-14              ZZ= -1.1680E+01
      In traceless form (Debye*Ang)
                  XX= -5.8052E-01              XY=  3.1700E-15              XZ=  2.6209E+00              YY=  7.7341E-01
                  YZ= -1.6401E-14              ZZ= -1.9289E-01
--

      Von Neumann Entropy (Root   2) =  0.65702


      Mulliken population analysis for root number:  2
      -----------------------------------------------


++    Molecular charges:
      ------------------

      Mulliken charges per centre and basis function type
      ---------------------------------------------------

                N1      C2      H3      H4      H5    
      1s       1.9960  1.9932  0.9332  0.9332  0.7855
      2s       1.5335  1.1953  0.0000  0.0000  0.0000
      2px      0.9050  0.9583  0.0000  0.0000  0.0000
      2pz      0.9578  0.8394  0.0000  0.0000  0.0000
      2py      1.9730  0.9966  0.0000  0.0000  0.0000
      Total    7.3652  5.9828  0.9332  0.9332  0.7855

      N-E     -0.3652  0.0172  0.0668  0.0668  0.2145

      Total electronic charge=   16.000000

      Total            charge=   -0.000000
--



      Expectation values of various properties for root number:  2
      -----------------------------------------------------------


++    Molecular properties:
      ---------------------

      Charge (e):
                      =   -0.0000
      Dipole Moment (Debye):
      Origin of the operator (Ang)=    0.0000    0.0000    0.0000
                   X= -6.5847E-01               Y= -7.3425E-15               Z=  6.4488E-01           Total=  9.2166E-01
      Quadrupole Moment (Debye*Ang):
      Origin of the operator (Ang)=   -0.0297    0.0000    0.7414
                  XX= -1.0884E+01              XY= -4.1579E-15              XZ=  1.0840E+00              YY= -1.2121E+01
                  YZ= -1.3914E-14              ZZ= -1.0372E+01
      In traceless form (Debye*Ang)
                  XX=  3.6270E-01              XY= -6.2368E-15              XZ=  1.6261E+00              YY= -1.4930E+00
                  YZ= -2.0871E-14              ZZ=  1.1303E+00
--


      Input file to MOLDEN was generated!


      Input file to MOLDEN was generated!


      Input file to MOLDEN was generated!

      Average orbitals are written to the RASORB file
      Natural orbitals for root   1 are written to the RASORB.1 file
      Natural orbitals for root   2 are written to the RASORB.2 file
      Spin density orbitals for root   1 are written to the SPDORB.1 file
      Spin density orbitals for root   2 are written to the SPDORB.2 file

--- Stop Module: rasscf at Tue Jul 18 01:03:31 2023 /rc=_RC_ALL_IS_WELL_ ---
*** files: formaldimine_4_3_sto3g_90_120.rasscf.molden.2 formaldimine_4_3_sto3g_90_120.rasscf.molden formaldimine_4_3_sto3g_90_120.rasscf.molden.1
           formaldimine_4_3_sto3g_90_120.RasOrb.2 formaldimine_4_3_sto3g_90_120.RasOrb.1 formaldimine_4_3_sto3g_90_120.RasOrb formaldimine_4_3_sto3g_90_120.rasscf.h5
           formaldimine_4_3_sto3g_90_120.SpdOrb.1 formaldimine_4_3_sto3g_90_120.SpdOrb.2 xmldump
    saved to directory /home/mbeseda/OpenMolcas/build/my_computations/formaldimine_90
--- Module rasscf spent 1 second ---

*** symbolic link created: INPORB -> formaldimine_4_3_sto3g_90_120.RasOrb
--- Start Module: alaska at Tue Jul 18 01:03:31 2023 ---

()()()()()()()()()()()()()()()()()()()()()()()()()()()()()()()()()()()()()()()()()()()()()()()()()()

                                              &ALASKA

                                   only a single process is used
                       available to each process: 2.0 GB of memory, 1 thread?
                                             pid: 42476
()()()()()()()()()()()()()()()()()()()()()()()()()()()()()()()()()()()()()()()()()()()()()()()()()()

--- Stop Module: alaska at Tue Jul 18 01:03:32 2023 /rc=_RC_INVOKED_OTHER_MODULE_ ---
*** files: xmldump
    saved to directory /home/mbeseda/OpenMolcas/build/my_computations/formaldimine_90

*** symbolic link created: INPORB -> formaldimine_4_3_sto3g_90_120.RasOrb
--- Start Module: mclr at Tue Jul 18 01:03:32 2023 ---

()()()()()()()()()()()()()()()()()()()()()()()()()()()()()()()()()()()()()()()()()()()()()()()()()()

                                               &MCLR

                                   only a single process is used
                       available to each process: 2.0 GB of memory, 1 thread?
                                             pid: 42480
()()()()()()()()()()()()()()()()()()()()()()()()()()()()()()()()()()()()()()()()()()()()()()()()()()

 Ordinary integral handling
 No .RLXPT2  or MCKINT  , I hope that is OK
 Seward mode is assumed, reading perturbation from ONEINT  
 OrdInt status: non-squared

++   Wave function specifications:
     -----------------------------

     Number of closed shell electrons             12
     Number of electrons in active shells          4
     Max number of holes in RAS1 space             0
     Max number of electrons in RAS3 space         0
     Number of inactive orbitals                   6
     Number of active orbitals                     3
     Number of secondary orbitals                  4
     Spin quantum number                         0.0
     State symmetry                                1
     Number of CI roots                            2
     States considered                             1     2
     Weights                                   0.500 0.500

     Symmetry species                              1
     Skipped sym. species                          0
     Frozen orbitals                               0
     Inactive orbitals                             6
     Active orbitals                               3
     RAS1 orbitals                                 0
     RAS2 orbitals                                 3
     RAS3 orbitals                                 0
     Deleted orbitals                              0
     Number of basis functions                    13
     Number of orbitals                           13
     Number of configurations                      6
     Number of combinations                        6
     Natural orbitals are used in the last CI
     RASSCF state energy =            -92.7566237306
     Size of explicit Hamiltonian in PCG:        100
--

     Convergence threshold=               1.0000E-04
     Max number of iterations in PCG:            200
     Lagrangian multipliers are calculated for state no.   1


        Iteration       Delta           Res(kappa)       Res(CI)          DeltaK           DeltaC
            1      1.548862565E-01  1.607418056E-02  7.738495631E-03  1.807860109E-04  3.097672640E-04
            2      3.002676937E-02  1.027721017E-02  2.429982906E-03  6.812831287E-05  2.697199091E-05
            3      2.801966606E-03  3.191601122E-03  1.469494681E-03  3.627207498E-06  5.247136330E-06
            4      1.835963699E-04  1.082024643E-03  2.136989108E-04  4.421753744E-07  1.393081124E-07
            5      5.298206331E-06  1.742239654E-04  4.798806312E-05  1.098230843E-08  5.798085941E-09
      Perturbation no:    1 converged in    5 steps.


++    Molecular properties:
      ---------------------

      Charge (e):
                      =   -0.0000
      Dipole Moment (Debye):
      Origin of the operator (Ang)=    0.0000    0.0000    0.0000
                   X= -1.4261E+00               Y= -1.7160E-14               Z=  7.7187E-01           Total=  1.6216E+00
      Quadrupole Moment (Debye*Ang):
      Origin of the operator (Ang)=   -0.0297    0.0000    0.7414
                  XX= -1.1923E+01              XY=  9.8376E-16              XZ=  1.7432E+00              YY= -1.1054E+01
                  YZ= -1.5055E-14              ZZ= -1.1630E+01
      In traceless form (Debye*Ang)
                  XX= -5.8101E-01              XY=  1.4756E-15              XZ=  2.6148E+00              YY=  7.2246E-01
                  YZ= -2.2583E-14              ZZ= -1.4145E-01
--


      The response parameters are written to the file RESP.
 ###############################################################################
 ###############################################################################
 ###                                                                         ###
 ###                                                                         ###
 ###    WARNING: RunFile label nBas                                          ###
 ###    was used       58 times                                              ###
 ###                                                                         ###
 ###                                                                         ###
 ###############################################################################
 ###############################################################################
--- Stop Module: mclr at Tue Jul 18 01:03:32 2023 /rc=_RC_ALL_IS_WELL_ ---
*** files: xmldump
    saved to directory /home/mbeseda/OpenMolcas/build/my_computations/formaldimine_90

*** symbolic link created: INPORB -> formaldimine_4_3_sto3g_90_120.RasOrb
--- Start Module: alaska at Tue Jul 18 01:03:32 2023 ---

()()()()()()()()()()()()()()()()()()()()()()()()()()()()()()()()()()()()()()()()()()()()()()()()()()

                                              &ALASKA

                                   only a single process is used
                       available to each process: 2.0 GB of memory, 1 thread?
                                             pid: 42483
()()()()()()()()()()()()()()()()()()()()()()()()()()()()()()()()()()()()()()()()()()()()()()()()()()


                     Threshold for contributions to the gradient: 0.100E-06


                    ********************************************
                    * Symmetry Adapted Cartesian Displacements *
                    ********************************************


           Irreducible representation : a  
           Basis function(s) of irrep: x, y, xy, Rz, z, xz, Ry, yz, Rx, I                                              

 Basis Label        Type   Center Phase
   1   N1           x         1     1
   2   N1           y         1     1
   3   N1           z         1     1
   4   C2           x         2     1
   5   C2           y         2     1
   6   C2           z         2     1
   7   H3           x         3     1
   8   H3           y         3     1
   9   H3           z         3     1
  10   H4           x         4     1
  11   H4           y         4     1
  12   H4           z         4     1
  13   H5           x         5     1
  14   H5           y         5     1
  15   H5           z         5     1

                     No automatic utilization of translational and rotational invariance of the energy is employed.


 **************************************************************************************************************
 *                                                                                                            *
 *                                     The Nuclear Repulsion Contribution                                     *
 *                                                                                                            *
 **************************************************************************************************************

  Irreducible representation: a  
 ------------------------------------------------------------------------------------------
                              X                       Y                       Z
 ------------------------------------------------------------------------------------------
  N1               -1.74221085203177E+00    0.00000000000000E+00    4.95948701607035E+00
  C2               -1.41085282669758E-01    0.00000000000000E+00   -4.16699313582816E+00
  H3               -1.08763827080329E-02    1.56018290816168E+00   -1.09531182107332E+00
  H4               -1.08763827080329E-02   -1.56018290816168E+00   -1.09531182107332E+00
  H5                1.90504890011759E+00    0.00000000000000E+00    1.39812976190445E+00
 ------------------------------------------------------------------------------------------


 **************************************************************************************************************
 *                                                                                                            *
 *                                      The Renormalization Contribution                                      *
 *                                                                                                            *
 **************************************************************************************************************

  Irreducible representation: a  
 ------------------------------------------------------------------------------------------
                              X                       Y                       Z
 ------------------------------------------------------------------------------------------
  N1                1.91408025630833E-01    5.98464617055012E-16   -1.35127385522814E-01
  C2               -7.18848751093581E-03    1.08764835010391E-16    4.68114268962976E-02
  H3                2.87728428007361E-04   -1.76421661169842E-01    9.60879470243110E-02
  H4                2.87728428006737E-04    1.76421661169841E-01    9.60879470243116E-02
  H5               -1.84794994975911E-01   -3.32606121464241E-16   -1.03859935422106E-01
 ------------------------------------------------------------------------------------------


 **************************************************************************************************************
 *                                                                                                            *
 *                                      The Kinetic Energy Contribution                                       *
 *                                                                                                            *
 **************************************************************************************************************

  Irreducible representation: a  
 ------------------------------------------------------------------------------------------
                              X                       Y                       Z
 ------------------------------------------------------------------------------------------
  N1               -4.01100295497072E-01   -2.17131158824923E-16    2.19514040492160E-01
  C2               -1.39481128845176E-02   -2.78093879211425E-16   -7.69744142934925E-02
  H3               -4.73370389975025E-04    3.91507010710489E-01   -2.12633837602192E-01
  H4               -4.73370389975055E-04   -3.91507010710489E-01   -2.12633837602192E-01
  H5                4.15995149161539E-01    3.30234429211929E-16    2.82728049005716E-01
 ------------------------------------------------------------------------------------------


 **************************************************************************************************************
 *                                                                                                            *
 *                                    The Nuclear Attraction Contribution                                     *
 *                                                                                                            *
 **************************************************************************************************************

  Irreducible representation: a  
 ------------------------------------------------------------------------------------------
                              X                       Y                       Z
 ------------------------------------------------------------------------------------------
  N1                3.99824722384051E+00    1.88607809925578E-15   -1.11650455356934E+01
  C2                3.39428862102717E-01    8.29804974733506E-15    8.69760625763479E+00
  H3                1.73535618473679E-02   -4.47793381233434E+00    2.90718297964052E+00
  H4                1.73535618473682E-02    4.47793381233433E+00    2.90718297964053E+00
  H5               -4.37238320963796E+00   -3.67067487516692E-15   -3.34692668122244E+00
 ------------------------------------------------------------------------------------------

 Conventional ERI gradients!

 Wavefunction type: State average CASSCF


 **************************************************
 *                                                *
 *              Molecular gradients               *
 *                                                *
 **************************************************

  Irreducible representation: a  
 ------------------------------------------------------------------------------------------
                              X                       Y                       Z
 ------------------------------------------------------------------------------------------
  N1               -1.04319089956206E-01    2.93214615885648E-16   -4.85014468018425E-02
  C2                2.11597798844384E-02    4.59111525343814E-16    5.32730335513980E-02
  H3                3.67559641833185E-05    1.07639520786509E-02   -7.76005975443361E-03
  H4                3.67559641837158E-05   -1.07639520786500E-02   -7.76005975443450E-03
  H5                8.30857981434026E-02   -2.82922556910092E-16    1.07485327592998E-02
 ------------------------------------------------------------------------------------------

--- Stop Module: alaska at Tue Jul 18 01:03:32 2023 /rc=_RC_ALL_IS_WELL_ ---
*** files: xmldump
    saved to directory /home/mbeseda/OpenMolcas/build/my_computations/formaldimine_90

*** symbolic link created: INPORB -> formaldimine_4_3_sto3g_90_120.RasOrb
--- Start Module: alaska at Tue Jul 18 01:03:32 2023 ---

()()()()()()()()()()()()()()()()()()()()()()()()()()()()()()()()()()()()()()()()()()()()()()()()()()

                                              &ALASKA

                                   only a single process is used
                       available to each process: 2.0 GB of memory, 1 thread?
                                             pid: 42486
()()()()()()()()()()()()()()()()()()()()()()()()()()()()()()()()()()()()()()()()()()()()()()()()()()

--- Stop Module: alaska at Tue Jul 18 01:03:32 2023 /rc=_RC_INVOKED_OTHER_MODULE_ ---
*** files: xmldump
    saved to directory /home/mbeseda/OpenMolcas/build/my_computations/formaldimine_90

*** symbolic link created: INPORB -> formaldimine_4_3_sto3g_90_120.RasOrb
--- Start Module: mclr at Tue Jul 18 01:03:32 2023 ---

()()()()()()()()()()()()()()()()()()()()()()()()()()()()()()()()()()()()()()()()()()()()()()()()()()

                                               &MCLR

                                   only a single process is used
                       available to each process: 2.0 GB of memory, 1 thread?
                                             pid: 42489
()()()()()()()()()()()()()()()()()()()()()()()()()()()()()()()()()()()()()()()()()()()()()()()()()()

 Ordinary integral handling
 No .RLXPT2  or MCKINT  , I hope that is OK
 Seward mode is assumed, reading perturbation from ONEINT  
 OrdInt status: non-squared

++   Wave function specifications:
     -----------------------------

     Number of closed shell electrons             12
     Number of electrons in active shells          4
     Max number of holes in RAS1 space             0
     Max number of electrons in RAS3 space         0
     Number of inactive orbitals                   6
     Number of active orbitals                     3
     Number of secondary orbitals                  4
     Spin quantum number                         0.0
     State symmetry                                1
     Number of CI roots                            2
     States considered                             1     2
     Weights                                   0.500 0.500

     Symmetry species                              1
     Skipped sym. species                          0
     Frozen orbitals                               0
     Inactive orbitals                             6
     Active orbitals                               3
     RAS1 orbitals                                 0
     RAS2 orbitals                                 3
     RAS3 orbitals                                 0
     Deleted orbitals                              0
     Number of basis functions                    13
     Number of orbitals                           13
     Number of configurations                      6
     Number of combinations                        6
     Natural orbitals are used in the last CI
     RASSCF state energy =            -92.7355865780
     Size of explicit Hamiltonian in PCG:        100
--

     Convergence threshold=               1.0000E-04
     Max number of iterations in PCG:            200
     Lagrangian multipliers are calculated for state no.   2


        Iteration       Delta           Res(kappa)       Res(CI)          DeltaK           DeltaC
            1      1.548862565E-01  1.607418056E-02  7.738495631E-03  1.807860109E-04  3.097672640E-04
            2      3.002676937E-02  1.027721017E-02  2.429982906E-03  6.812831287E-05  2.697199091E-05
            3      2.801966606E-03  3.191601122E-03  1.469494681E-03  3.627207498E-06  5.247136330E-06
            4      1.835963699E-04  1.082024643E-03  2.136989108E-04  4.421753744E-07  1.393081124E-07
            5      5.298206331E-06  1.742239654E-04  4.798806312E-05  1.098230843E-08  5.798085941E-09
      Perturbation no:    1 converged in    5 steps.


++    Molecular properties:
      ---------------------

      Charge (e):
                      =   -0.0000
      Dipole Moment (Debye):
      Origin of the operator (Ang)=    0.0000    0.0000    0.0000
                   X= -6.5655E-01               Y= -2.9896E-14               Z=  6.0132E-01           Total=  8.9030E-01
      Quadrupole Moment (Debye*Ang):
      Origin of the operator (Ang)=   -0.0297    0.0000    0.7414
                  XX= -1.0899E+01              XY= -5.4447E-15              XZ=  1.0881E+00              YY= -1.2102E+01
                  YZ= -9.5818E-15              ZZ= -1.0422E+01
      In traceless form (Debye*Ang)
                  XX=  3.6319E-01              XY= -8.1670E-15              XZ=  1.6321E+00              YY= -1.4421E+00
                  YZ= -1.4373E-14              ZZ=  1.0789E+00
--


      The response parameters are written to the file RESP.
 ###############################################################################
 ###############################################################################
 ###                                                                         ###
 ###                                                                         ###
 ###    WARNING: RunFile label nBas                                          ###
 ###    was used       58 times                                              ###
 ###                                                                         ###
 ###                                                                         ###
 ###############################################################################
 ###############################################################################
--- Stop Module: mclr at Tue Jul 18 01:03:33 2023 /rc=_RC_ALL_IS_WELL_ ---
*** files: xmldump
    saved to directory /home/mbeseda/OpenMolcas/build/my_computations/formaldimine_90

*** symbolic link created: INPORB -> formaldimine_4_3_sto3g_90_120.RasOrb
--- Start Module: alaska at Tue Jul 18 01:03:33 2023 ---

()()()()()()()()()()()()()()()()()()()()()()()()()()()()()()()()()()()()()()()()()()()()()()()()()()

                                              &ALASKA

                                   only a single process is used
                       available to each process: 2.0 GB of memory, 1 thread?
                                             pid: 42493
()()()()()()()()()()()()()()()()()()()()()()()()()()()()()()()()()()()()()()()()()()()()()()()()()()


                     Threshold for contributions to the gradient: 0.100E-06


                    ********************************************
                    * Symmetry Adapted Cartesian Displacements *
                    ********************************************


           Irreducible representation : a  
           Basis function(s) of irrep: x, y, xy, Rz, z, xz, Ry, yz, Rx, I                                              

 Basis Label        Type   Center Phase
   1   N1           x         1     1
   2   N1           y         1     1
   3   N1           z         1     1
   4   C2           x         2     1
   5   C2           y         2     1
   6   C2           z         2     1
   7   H3           x         3     1
   8   H3           y         3     1
   9   H3           z         3     1
  10   H4           x         4     1
  11   H4           y         4     1
  12   H4           z         4     1
  13   H5           x         5     1
  14   H5           y         5     1
  15   H5           z         5     1

                     No automatic utilization of translational and rotational invariance of the energy is employed.


 **************************************************************************************************************
 *                                                                                                            *
 *                                     The Nuclear Repulsion Contribution                                     *
 *                                                                                                            *
 **************************************************************************************************************

  Irreducible representation: a  
 ------------------------------------------------------------------------------------------
                              X                       Y                       Z
 ------------------------------------------------------------------------------------------
  N1               -1.74221085203177E+00    0.00000000000000E+00    4.95948701607035E+00
  C2               -1.41085282669758E-01    0.00000000000000E+00   -4.16699313582816E+00
  H3               -1.08763827080329E-02    1.56018290816168E+00   -1.09531182107332E+00
  H4               -1.08763827080329E-02   -1.56018290816168E+00   -1.09531182107332E+00
  H5                1.90504890011759E+00    0.00000000000000E+00    1.39812976190445E+00
 ------------------------------------------------------------------------------------------


 **************************************************************************************************************
 *                                                                                                            *
 *                                      The Renormalization Contribution                                      *
 *                                                                                                            *
 **************************************************************************************************************

  Irreducible representation: a  
 ------------------------------------------------------------------------------------------
                              X                       Y                       Z
 ------------------------------------------------------------------------------------------
  N1                2.21812458162391E-01    4.80898984351519E-16   -1.82608367196985E-01
  C2               -4.00399578818035E-03    2.45871038872918E-16    8.63299937081067E-02
  H3               -6.11581222832930E-03   -1.75862321038637E-01    9.37142250563678E-02
  H4               -6.11581222833003E-03    1.75862321038636E-01    9.37142250563682E-02
  H5               -2.05576837917552E-01   -2.14590714989193E-16   -9.11500766238576E-02
 ------------------------------------------------------------------------------------------


 **************************************************************************************************************
 *                                                                                                            *
 *                                      The Kinetic Energy Contribution                                       *
 *                                                                                                            *
 **************************************************************************************************************

  Irreducible representation: a  
 ------------------------------------------------------------------------------------------
                              X                       Y                       Z
 ------------------------------------------------------------------------------------------
  N1               -4.50769225132710E-01    5.17317834737691E-16    3.47764141103489E-01
  C2               -6.31105753252033E-03   -2.77998078814488E-16   -1.47853382614926E-01
  H3                1.20698653908502E-02    3.87708887177298E-01   -2.11056017140864E-01
  H4                1.20698653908508E-02   -3.87708887177298E-01   -2.11056017140865E-01
  H5                4.32940551883529E-01   -3.55780942901118E-16    2.22201275793166E-01
 ------------------------------------------------------------------------------------------


 **************************************************************************************************************
 *                                                                                                            *
 *                                    The Nuclear Attraction Contribution                                     *
 *                                                                                                            *
 **************************************************************************************************************

  Irreducible representation: a  
 ------------------------------------------------------------------------------------------
                              X                       Y                       Z
 ------------------------------------------------------------------------------------------
  N1                5.01632851044015E+00   -6.39310653027803E-15   -1.28918265902577E+01
  C2                2.50501389966072E-01    7.65143157166470E-15    1.02150858887675E+01
  H3               -1.13679797037939E-01   -4.41942629645320E+00    2.82919258817117E+00
  H4               -1.13679797037947E-01    4.41942629645319E+00    2.82919258817118E+00
  H5               -5.03947030633034E+00    3.91700560875563E-15   -2.98164447485212E+00
 ------------------------------------------------------------------------------------------

 Conventional ERI gradients!

 Wavefunction type: State average CASSCF


 **************************************************
 *                                                *
 *              Molecular gradients               *
 *                                                *
 **************************************************

  Irreducible representation: a  
 ------------------------------------------------------------------------------------------
                              X                       Y                       Z
 ------------------------------------------------------------------------------------------
  N1               -1.38640291851435E-02   -7.51458985776657E-16   -1.89950471008526E-01
  C2                1.45232849424080E-02    2.25412914918067E-15    1.78410421282811E-01
  H3               -1.17242545485903E-02    1.48286711558332E-02   -1.55967857641897E-02
  H4               -1.17242545485906E-02   -1.48286711558350E-02   -1.55967857641863E-02
  H5                2.27892533399117E-02    4.76398434590131E-16    4.27336212540814E-02
 ------------------------------------------------------------------------------------------

--- Stop Module: alaska at Tue Jul 18 01:03:33 2023 /rc=_RC_ALL_IS_WELL_ ---
*** files: xmldump
    saved to directory /home/mbeseda/OpenMolcas/build/my_computations/formaldimine_90

*** symbolic link created: INPORB -> formaldimine_4_3_sto3g_90_120.RasOrb
--- Start Module: alaska at Tue Jul 18 01:03:33 2023 ---

()()()()()()()()()()()()()()()()()()()()()()()()()()()()()()()()()()()()()()()()()()()()()()()()()()

                                              &ALASKA

                                   only a single process is used
                       available to each process: 2.0 GB of memory, 1 thread?
                                             pid: 42496
()()()()()()()()()()()()()()()()()()()()()()()()()()()()()()()()()()()()()()()()()()()()()()()()()()

--- Stop Module: alaska at Tue Jul 18 01:03:33 2023 /rc=_RC_INVOKED_OTHER_MODULE_ ---
*** files: xmldump
    saved to directory /home/mbeseda/OpenMolcas/build/my_computations/formaldimine_90

*** symbolic link created: INPORB -> formaldimine_4_3_sto3g_90_120.RasOrb
--- Start Module: mclr at Tue Jul 18 01:03:33 2023 ---

()()()()()()()()()()()()()()()()()()()()()()()()()()()()()()()()()()()()()()()()()()()()()()()()()()

                                               &MCLR

                                   only a single process is used
                       available to each process: 2.0 GB of memory, 1 thread?
                                             pid: 42499
()()()()()()()()()()()()()()()()()()()()()()()()()()()()()()()()()()()()()()()()()()()()()()()()()()

 Ordinary integral handling
 No .RLXPT2  or MCKINT  , I hope that is OK
 Seward mode is assumed, reading perturbation from ONEINT  
 OrdInt status: non-squared

++   Wave function specifications:
     -----------------------------

     Number of closed shell electrons             12
     Number of electrons in active shells          4
     Max number of holes in RAS1 space             0
     Max number of electrons in RAS3 space         0
     Number of inactive orbitals                   6
     Number of active orbitals                     3
     Number of secondary orbitals                  4
     Spin quantum number                         0.0
     State symmetry                                1
     Number of CI roots                            2
     States considered                             1     2
     Weights                                   0.500 0.500

     Symmetry species                              1
     Skipped sym. species                          0
     Frozen orbitals                               0
     Inactive orbitals                             6
     Active orbitals                               3
     RAS1 orbitals                                 0
     RAS2 orbitals                                 3
     RAS3 orbitals                                 0
     Deleted orbitals                              0
     Number of basis functions                    13
     Number of orbitals                           13
     Number of configurations                      6
     Number of combinations                        6
     Natural orbitals are used in the last CI
     RASSCF state energy =            -92.7566237306
     Size of explicit Hamiltonian in PCG:        100
--

     Convergence threshold=               1.0000E-04
     Max number of iterations in PCG:            200
     Lagrangian multipliers are calculated for states no.   1/  2


        Iteration       Delta           Res(kappa)       Res(CI)          DeltaK           DeltaC
            1      4.386370721E-02  7.030448525E-03  1.891471961E-03  2.429111155E-05  1.686341517E-05
            2      6.484961740E-03  2.411818524E-03  9.352084619E-04  2.446237198E-06  3.638189956E-06
            3      1.527838462E-04  3.904694807E-04  1.960019876E-04  4.428782629E-08  9.905953949E-08
      Perturbation no:    1 converged in    3 steps.


      The response parameters are written to the file RESP.
--- Stop Module: mclr at Tue Jul 18 01:03:33 2023 /rc=_RC_ALL_IS_WELL_ ---
*** files: xmldump
    saved to directory /home/mbeseda/OpenMolcas/build/my_computations/formaldimine_90

*** symbolic link created: INPORB -> formaldimine_4_3_sto3g_90_120.RasOrb
--- Start Module: alaska at Tue Jul 18 01:03:33 2023 ---

()()()()()()()()()()()()()()()()()()()()()()()()()()()()()()()()()()()()()()()()()()()()()()()()()()

                                              &ALASKA

                                   only a single process is used
                       available to each process: 2.0 GB of memory, 1 thread?
                                             pid: 42502
()()()()()()()()()()()()()()()()()()()()()()()()()()()()()()()()()()()()()()()()()()()()()()()()()()


                     Threshold for contributions to the gradient: 0.100E-06


                    ********************************************
                    * Symmetry Adapted Cartesian Displacements *
                    ********************************************


           Irreducible representation : a  
           Basis function(s) of irrep: x, y, xy, Rz, z, xz, Ry, yz, Rx, I                                              

 Basis Label        Type   Center Phase
   1   N1           x         1     1
   2   N1           y         1     1
   3   N1           z         1     1
   4   C2           x         2     1
   5   C2           y         2     1
   6   C2           z         2     1
   7   H3           x         3     1
   8   H3           y         3     1
   9   H3           z         3     1
  10   H4           x         4     1
  11   H4           y         4     1
  12   H4           z         4     1
  13   H5           x         5     1
  14   H5           y         5     1
  15   H5           z         5     1

                     No automatic utilization of translational and rotational invariance of the energy is employed.

 Skipping Nuclear Charge Contribution

 **************************************************************************************************************
 *                                                                                                            *
 *                                      The Renormalization Contribution                                      *
 *                                                                                                            *
 **************************************************************************************************************

  Irreducible representation: a  
 ------------------------------------------------------------------------------------------
                              X                       Y                       Z
 ------------------------------------------------------------------------------------------
  N1                5.52047046453337E-18    2.46556264787967E-02   -1.83956417317324E-16
  C2                9.25751483420286E-17   -7.46155789804937E-03    1.60710296928474E-16
  H3               -5.03161222645240E-03   -4.17448428512334E-04    2.26323624839171E-03
  H4                5.03161222645235E-03   -4.17448428512226E-04   -2.26323624839167E-03
  H5               -4.08744219027035E-17   -1.63591717237228E-02   -1.26309553094561E-17
 ------------------------------------------------------------------------------------------


 **************************************************************************************************************
 *                                                                                                            *
 *                                      The Kinetic Energy Contribution                                       *
 *                                                                                                            *
 **************************************************************************************************************

  Irreducible representation: a  
 ------------------------------------------------------------------------------------------
                              X                       Y                       Z
 ------------------------------------------------------------------------------------------
  N1               -9.62614873290726E-18   -6.29454598541621E-02    2.69089395213634E-16
  C2               -8.35966548793139E-17    2.15094527584543E-02   -1.65234100130925E-16
  H3                1.78887409798467E-02   -2.09745135483670E-03   -3.69042979360483E-03
  H4               -1.78887409798466E-02   -2.09745135483671E-03    3.69042979360484E-03
  H5                9.20216593897072E-18    4.56309098053812E-02   -1.12458870341059E-16
 ------------------------------------------------------------------------------------------


 **************************************************************************************************************
 *                                                                                                            *
 *                                    The Nuclear Attraction Contribution                                     *
 *                                                                                                            *
 **************************************************************************************************************

  Irreducible representation: a  
 ------------------------------------------------------------------------------------------
                              X                       Y                       Z
 ------------------------------------------------------------------------------------------
  N1                8.69788324597393E-16    7.60653646905696E-01   -3.71709896650010E-15
  C2                1.50332851426469E-15   -2.59092368590930E-01    4.13098196905240E-15
  H3               -1.95046479292005E-01    3.72896465587911E-03    6.14198790857152E-02
  H4                1.95046479292004E-01    3.72896465587884E-03   -6.14198790857157E-02
  H5               -1.50362643836879E-15   -5.09019207626523E-01    1.77997588213477E-16
 ------------------------------------------------------------------------------------------

 Conventional ERI gradients!

 Wavefunction type: State average CASSCF


 *****************************************************
 *                                                   *
 *              CI derivative coupling               *
 *                                                   *
 *****************************************************

  Irreducible representation: a  
 ------------------------------------------------------------------------------------------
                              X                       Y                       Z
 ------------------------------------------------------------------------------------------
  N1                3.11206110531614E-16    7.12532534055723E-02    4.57292997551804E-16
  C2                1.38498171748691E-16   -2.69938479552528E-02    2.28355983876286E-16
  H3               -1.68219890730112E-02    1.07685021427813E-03    4.67479641893479E-03
  H4                1.68219890730113E-02    1.07685021427773E-03   -4.67479641893501E-03
  H5               -5.15979245606697E-16   -4.64131058788749E-02   -4.30239830550891E-16
 ------------------------------------------------------------------------------------------


 **************************************************************************************************************
 *                                                                                                            *
 *                                            The CSF Contribution                                            *
 *                                                                                                            *
 **************************************************************************************************************

  Irreducible representation: a  
 ------------------------------------------------------------------------------------------
                              X                       Y                       Z
 ------------------------------------------------------------------------------------------
  N1                1.53237007948415E-17   -1.56676992276470E-01    2.57920904093149E-16
  C2                2.07444411210036E-19    1.75443337028237E-02    8.56495954051892E-17
  H3               -9.77287803936976E-03    6.66527377077848E-04    1.60256693198674E-03
  H4                9.77287803936980E-03    6.66527377077845E-04   -1.60256693198677E-03
  H5                1.19533289516527E-17    3.51036592083546E-02    1.82145964977565E-17
 ------------------------------------------------------------------------------------------


 ******************************************************
 *                                                    *
 *              CSF derivative coupling               *
 *                                                    *
 ******************************************************

  Irreducible representation: a  
 ------------------------------------------------------------------------------------------
                              X                       Y                       Z
 ------------------------------------------------------------------------------------------
  N1                1.53237007948415E-17   -1.56676992276470E-01    2.57920904093149E-16
  C2                2.07444411210036E-19    1.75443337028237E-02    8.56495954051892E-17
  H3               -9.77287803936976E-03    6.66527377077848E-04    1.60256693198674E-03
  H4                9.77287803936980E-03    6.66527377077845E-04   -1.60256693198677E-03
  H5                1.19533289516527E-17    3.51036592083546E-02    1.82145964977565E-17
 ------------------------------------------------------------------------------------------

               Energy difference: -2.103715E-02

 *******************************************************
 *                                                     *
 *              Total derivative coupling              *
 *                                                     *
 *******************************************************

  Irreducible representation: a  
 ------------------------------------------------------------------------------------------
                              X                       Y                       Z
 ------------------------------------------------------------------------------------------
  N1               -1.47778432355228E-14   -3.54369683768948E+00   -2.14794789176424E-14
  C2               -6.58329623921917E-15    1.30069554938265E+00   -1.07692407042047E-14
  H3                7.89859533203679E-01   -5.05214938285901E-02   -2.20613647590500E-01
  H4               -7.89859533203681E-01   -5.05214938285714E-02    2.20613647590511E-01
  H5                2.45390010237934E-14    2.24134833135283E+00    2.04696434746777E-14
 ------------------------------------------------------------------------------------------

               norm:       4.5413
--- Stop Module: alaska at Tue Jul 18 01:03:34 2023 /rc=_RC_ALL_IS_WELL_ ---
*** files: xmldump
    saved to directory /home/mbeseda/OpenMolcas/build/my_computations/formaldimine_90

.##################.
.# Happy landing! #.
.##################.

    Timing: Wall=7.47 User=4.37 System=1.47
