  5
Angstrom
  N 0.000000000  0.000000000  0.000000000
  C 0.000000000  0.000000000  1.498047000
  H 0.000000000 -0.938765985  2.004775984
  H 0.000000000  0.938765985  2.004775984
  H -0.697991468  0.000000000 -0.697991468
